Rossmann Store Sale
…
1802014/72015/1

## # A tibble: 180 x 2
##    Store   num
##    <int> <int>
##  1    13   758
##  2    20   758
##  3    22   758
##  4    32   758
##  5    36   758
##  6    41   758
##  7    46   758
##  8    51   758
##  9    52   758
## 10    58   758
## # ... with 170 more rows
…
